---
source: spade-tests/src/parser.rs
---
fn top() -> bool {
    let a = [true, true, false];
    a[1+1:]
}


error: Range indices must be integers
  ┌─ testinput:3:7
  │
3 │     a[1+1:]
  │       ^^^ range index is not an integer literal


