---
source: spade-tests/src/linear_check.rs
---
entity x(resource: &mut bool) -> bool {
    true
}


error: Unused resource
  ┌─ testinput:1:10
  │
1 │ entity x(resource: &mut bool) -> bool {
  │          ^^^^^^^^ resource is unused
  │
  = note: resource is a &mut value which must be set


